…
``` r
# If you need to change your directory, use 'setwd('/where/you/need/to/go/')'
# define the name of the file. You can directly use '/where/you/need/to/go/file_name.xlsx'
# if you want to access the file without changing directory.
file_path = 'FS_experiment_6_6_OD summary round1.xlsx' 
# Load the file into a data.frame using the column names:
betagal_results = read_excel(file_path, col_names = T)
# Look at the data.frame:
betagal_results
```

    ## # A tibble: 116 x 6
    ##    biological_replicate technical_replicate condition  OD600 OD420 dt_min
    ##                   <dbl> <chr>               <chr>      <dbl> <dbl>  <dbl>
    ##  1                    1 A                   aerobic200 0.576 0.012     12
    ##  2                    1 B                   aerobic200 0.46  0.016     12
    ##  3                    1 C                   aerobic200 1.28  0.004     10
    ##  4                    1 D                   aerobic200 0.596 0.021     12
    ##  5                    2 A                   aerobic200 0.107 0.008     15
    ##  6                    2 B                   aerobic200 0.131 0.035     15
    ##  7                    2 C                   aerobic200 0.102 0.002     15
    ##  8                    2 D                   aerobic200 0.096 0.044     15
    ##  9                    3 A                   aerobic200 1.21  0.168     15
    ## 10                    3 B                   aerobic200 0.864 0.222     15
    ## # … with 106 more rows
…
``` r
# This can be tested for all the combinations of groups and reactions. Not all of them are
# interesting, but some might help you to adress specific questions.
betagal_results = mutate(betagal_results,
                         biological_replicate = gsub('roup ', '', biological_replicate),
                         Condition = rep(c('R1', 'R2', 'R3', 'R4'), each = 29))
post_hoc_res = 
  TukeyHSD(aov(data = betagal_results, Activity ~ biological_replicate*Condition),
           'biological_replicate:Condition', conf.level = .95)
post_hoc_df = as_tibble(post_hoc_res$`biological_replicate:Condition`,
                        rownames = 'Comparison')
filter(post_hoc_df, `p adj` <= 0.05)
```

    ## # A tibble: 145 x 5
    ##    Comparison   diff    lwr   upr  `p adj`
    ##    <chr>       <dbl>  <dbl> <dbl>    <dbl>
    ##  1 G1:R2-G1:R1  224.  60.0   387. 3.43e- 4
    ##  2 G2:R2-G1:R1  695. 532.    859. 3.56e-10
    ##  3 G3:R2-G1:R1  187.  31.7   342. 3.74e- 3
    ##  4 G4:R2-G1:R1  276. 112.    439. 1.95e- 6
    ##  5 G5:R2-G1:R1  275. 111.    438. 2.10e- 6
    ##  6 G6:R2-G1:R1  297. 133.    460. 2.13e- 7
    ##  7 G7:R2-G1:R1  217.  53.6   381. 6.24e- 4
    ##  8 G1:R2-G2:R1  165.   1.57  329. 4.48e- 2
    ##  9 G2:R2-G2:R1  637. 473.    801. 3.56e-10
    ## 10 G4:R2-G2:R1  217.  53.5   381. 6.30e- 4
    ## # … with 135 more rows
…
